<svg xmlns="http://www.w3.org/2000/svg" width="400" height="200" viewBox="0 0 400 300">
  <polyline points="50.0,180.0
51.5,178.73312665298852
53.0,177.47898570142436
54.5,176.2375771453076
56.0,175.00890098463816
57.5,173.79295721941608
59.0,172.58974584964136
60.5,171.39926687531397
62.0,170.22152029643394
63.5,169.05650611300126
65.0,167.90422432501595
66.50000000000003,166.76467493247796
68.00000000000003,165.63785793538736
69.50000000000003,164.5237733337441
71.00000000000003,163.42242112754818
72.50000000000001,162.3338013167996
74.00000000000003,161.2579139014984
75.50000000000003,160.19475888164453
77.00000000000003,159.14433625723802
78.50000000000003,158.10664602827885
80.00000000000003,157.08168819476705
81.50000000000003,156.0694627567026
83.00000000000003,155.0699697140855
84.50000000000003,154.08320906691574
86.00000000000003,153.10918081519333
87.50000000000003,152.1478849589183
89.00000000000003,151.1993214980906
90.50000000000004,150.26349043271026
92.00000000000004,149.34039176277724
93.50000000000004,148.43002548829162
95.00000000000004,147.53239160925332
96.50000000000004,146.6474901256624
98.00000000000004,145.77532103751878
99.50000000000004,144.91588434482256
101.00000000000004,144.06918004757367
102.50000000000004,143.23520814577216
104.00000000000004,142.41396863941796
105.50000000000004,141.60546152851114
107.00000000000006,140.80968681305166
108.50000000000006,140.02664449303956
110.00000000000006,139.25633456847476
111.50000000000006,138.49875703935734
113.00000000000006,137.7539119056873
114.50000000000006,137.02179916746456
116.00000000000006,136.3024188246892
117.50000000000006,135.5957708773612
119.00000000000006,134.9018553254805
120.50000000000006,134.2206721690472
122.00000000000006,133.55222140806123
123.50000000000007,132.89650304252262
125.00000000000007,132.25351707243135
126.50000000000007,131.62326349778746
128.00000000000006,131.0057423185909
129.50000000000006,130.4009535348417
131.00000000000006,129.80889714653986
132.50000000000006,129.22957315368535
134.00000000000006,128.6629815562782
135.50000000000006,128.1091223543184
137.00000000000009,127.56799554780598
138.50000000000009,127.03960113674088
140.00000000000009,126.52393912112314
141.50000000000009,126.02100950095274
143.00000000000009,125.53081227622971
144.50000000000009,125.05334744695404
146.00000000000009,124.58861501312569
147.50000000000009,124.1366149747447
149.00000000000009,123.69734733181107
150.50000000000009,123.2708120843248
152.00000000000009,122.85700923228586
153.50000000000009,122.45593877569429
155.00000000000009,122.06760071455007
156.50000000000009,121.69199504885319
158.0000000000001,121.32912177860368
159.5000000000001,120.9789809038015
161.0000000000001,120.6415724244467
162.5000000000001,120.31689634053922
164.0000000000001,120.00495265207911
165.5000000000001,119.70574135906635
167.0000000000001,119.41926246150094
168.5000000000001,119.14551595938289
170.0000000000001,118.88450185271216
171.5000000000001,118.6362201414888
173.0000000000001,118.40067082571281
174.5000000000001,118.17785390538415
176.0000000000001,117.96776938050286
177.5000000000001,117.77041725106889
179.0000000000001,117.58579751708231
180.5000000000001,117.41391017854306
182.0000000000001,117.25475523545117
183.5000000000001,117.10833268780662
185.0000000000001,116.97464253560943
186.5000000000001,116.85368477885959
188.0000000000001,116.7454594175571
189.5000000000001,116.64996645170197
191.0000000000001,116.56720588129419
192.5000000000001,116.49717770633376
194.0000000000001,116.43988192682068
195.50000000000014,116.39531854275495
197.00000000000014,116.36348755413655
198.50000000000014,116.34438896096553
200.00000000000014,116.33802276324187
201.50000000000014,116.34438896096553
203.00000000000014,116.36348755413655
204.50000000000014,116.39531854275495
206.00000000000014,116.43988192682068
207.50000000000014,116.49717770633376
209.00000000000014,116.5672058812942
210.50000000000014,116.64996645170199
212.00000000000014,116.74545941755713
213.50000000000014,116.85368477885962
215.00000000000014,116.97464253560946
216.50000000000014,117.10833268780664
218.00000000000014,117.25475523545119
219.50000000000014,117.41391017854309
221.00000000000014,117.58579751708234
222.50000000000014,117.77041725106895
224.00000000000017,117.96776938050289
225.50000000000017,118.1778539053842
227.00000000000017,118.40067082571287
228.50000000000017,118.63622014148885
230.00000000000017,118.88450185271222
231.50000000000017,119.14551595938292
233.00000000000017,119.41926246150098
234.50000000000017,119.7057413590664
236.00000000000017,120.00495265207917
237.50000000000017,120.31689634053927
239.00000000000017,120.64157242444675
240.50000000000017,120.97898090380156
242.00000000000017,121.32912177860374
243.50000000000017,121.69199504885326
245.00000000000017,122.06760071455014
246.50000000000017,122.45593877569436
248.00000000000017,122.85700923228595
249.50000000000017,123.27081208432487
251.00000000000017,123.69734733181116
252.50000000000017,124.13661497474479
254.00000000000017,124.58861501312578
255.50000000000017,125.0533474469541
257.00000000000017,125.5308122762298
258.50000000000017,126.02100950095283
260.00000000000017,126.52393912112322
261.50000000000017,127.03960113674097
263.00000000000017,127.56799554780606
264.50000000000017,128.10912235431852
266.0000000000002,128.6629815562783
267.5000000000002,129.22957315368546
269.0000000000002,129.80889714653995
270.5000000000002,130.40095353484182
272.0000000000002,131.00574231859102
273.5000000000002,131.62326349778758
275.0000000000002,132.2535170724315
276.5000000000002,132.89650304252274
278.0000000000002,133.55222140806134
279.5000000000002,134.2206721690473
281.0000000000002,134.90185532548062
282.5000000000002,135.5957708773613
284.0000000000002,136.3024188246893
285.5000000000002,137.02179916746468
287.0000000000002,137.7539119056874
288.5000000000002,138.49875703935749
290.0000000000002,139.2563345684749
291.5000000000002,140.02664449303967
293.0000000000002,140.8096868130518
294.5000000000002,141.60546152851128
296.0000000000002,142.4139686394181
297.5000000000002,143.23520814577228
299.0000000000002,144.06918004757384
300.5000000000002,144.9158843448227
302.0000000000002,145.77532103751895
303.5000000000002,146.64749012566256
305.0000000000002,147.53239160925347
306.5000000000002,148.43002548829176
308.0000000000002,149.34039176277741
309.5000000000002,150.26349043271043
311.0000000000002,151.19932149809077
312.5000000000002,152.14788495891847
314.0000000000002,153.1091808151935
315.5000000000002,154.0832090669159
317.0000000000002,155.0699697140857
318.5000000000002,156.06946275670276
320.0000000000002,157.08168819476722
321.5000000000002,158.10664602827904
323.0000000000002,159.1443362572382
324.5000000000002,160.1947588816447
326.0000000000002,161.25791390149857
327.5000000000002,162.3338013167998
329.0000000000002,163.42242112754838
330.5000000000002,164.5237733337443
332.0000000000002,165.63785793538756
333.5000000000002,166.7646749324782
335.0000000000002,167.90422432501614
336.5000000000002,169.05650611300146
338.0000000000002,170.22152029643416
339.5000000000002,171.39926687531417
341.0000000000002,172.58974584964156
342.5000000000002,173.79295721941628
344.0000000000002,175.00890098463836
345.5000000000002,176.23757714530782
347.0000000000002,177.4789857014246
348.5000000000002,178.73312665298874"
 style="fill:none;stroke:#e37222;stroke-width:3" />
 <g stroke="#0065bd" fill="#0065bd" stroke-width="4">
      <polyline points="200,30 200,250" stroke-dasharray="15,10">
      </polyline>
  </g>
 <g stroke="#0065bd" fill="#0065bd" stroke-width="4">
      <polyline points="30.0,183.8 370,183.8" stroke-dasharray="15,10">
      </polyline>
  </g>
</svg>
