<?xml version="1.0" encoding="UTF-8" standalone="no"?>
<!-- Created with Inkscape (http://www.inkscape.org/) -->

<svg
   xmlns:dc="http://purl.org/dc/elements/1.1/"
   xmlns:cc="http://creativecommons.org/ns#"
   xmlns:rdf="http://www.w3.org/1999/02/22-rdf-syntax-ns#"
   xmlns:svg="http://www.w3.org/2000/svg"
   xmlns="http://www.w3.org/2000/svg"
   xmlns:sodipodi="http://sodipodi.sourceforge.net/DTD/sodipodi-0.dtd"
   xmlns:inkscape="http://www.inkscape.org/namespaces/inkscape"
   width="400"
   height="300"
   viewBox="0 0 105.83334 79.374998"
   version="1.1"
   id="svg4540"
   inkscape:version="0.92.4 (5da689c313, 2019-01-14)"
   sodipodi:docname="card.svg">
  <defs
     id="defs4534">
    <marker
       inkscape:stockid="Arrow2Send"
       orient="auto"
       refY="0"
       refX="0"
       id="Arrow2Send"
       style="overflow:visible"
       inkscape:isstock="true">
      <path
         id="path8321"
         style="fill:#a2ad00;fill-opacity:1;fill-rule:evenodd;stroke:#a2ad00;stroke-width:0.625;stroke-linejoin:round;stroke-opacity:1"
         d="M 8.7185878,4.0337352 -2.2072895,0.01601326 8.7185884,-4.0017078 c -1.7454984,2.3720609 -1.7354408,5.6174519 -6e-7,8.035443 z"
         transform="matrix(-0.3,0,0,-0.3,0.69,0)"
         inkscape:connector-curvature="0" />
    </marker>
    <marker
       inkscape:stockid="Arrow2Sstart"
       orient="auto"
       refY="0"
       refX="0"
       id="Arrow2Sstart"
       style="overflow:visible"
       inkscape:isstock="true">
      <path
         id="path8318"
         style="fill:#a2ad00;fill-opacity:1;fill-rule:evenodd;stroke:#a2ad00;stroke-width:0.625;stroke-linejoin:round;stroke-opacity:1"
         d="M 8.7185878,4.0337352 -2.2072895,0.01601326 8.7185884,-4.0017078 c -1.7454984,2.3720609 -1.7354408,5.6174519 -6e-7,8.035443 z"
         transform="matrix(0.3,0,0,0.3,-0.69,0)"
         inkscape:connector-curvature="0" />
    </marker>
    <marker
       inkscape:stockid="Arrow2Lend"
       orient="auto"
       refY="0"
       refX="0"
       id="Arrow2Lend"
       style="overflow:visible"
       inkscape:isstock="true">
      <path
         id="path8309"
         style="fill:#343a40;fill-opacity:1;fill-rule:evenodd;stroke:#343a40;stroke-width:0.625;stroke-linejoin:round;stroke-opacity:1"
         d="M 8.7185878,4.0337352 -2.2072895,0.01601326 8.7185884,-4.0017078 c -1.7454984,2.3720609 -1.7354408,5.6174519 -6e-7,8.035443 z"
         transform="matrix(-1.1,0,0,-1.1,-1.1,0)"
         inkscape:connector-curvature="0" />
    </marker>
    <marker
       inkscape:stockid="Arrow2Lstart"
       orient="auto"
       refY="0"
       refX="0"
       id="Arrow2Lstart"
       style="overflow:visible"
       inkscape:isstock="true">
      <path
         id="path8306"
         style="fill:#343a40;fill-opacity:1;fill-rule:evenodd;stroke:#343a40;stroke-width:0.625;stroke-linejoin:round;stroke-opacity:1"
         d="M 8.7185878,4.0337352 -2.2072895,0.01601326 8.7185884,-4.0017078 c -1.7454984,2.3720609 -1.7354408,5.6174519 -6e-7,8.035443 z"
         transform="matrix(1.1,0,0,1.1,1.1,0)"
         inkscape:connector-curvature="0" />
    </marker>
  </defs>
  <sodipodi:namedview
     id="base"
     pagecolor="#ffffff"
     bordercolor="#666666"
     borderopacity="1.0"
     inkscape:pageopacity="0.0"
     inkscape:pageshadow="2"
     inkscape:zoom="0.49497475"
     inkscape:cx="-427.6373"
     inkscape:cy="375.50937"
     inkscape:document-units="mm"
     inkscape:current-layer="layer1"
     showgrid="false"
     inkscape:snap-nodes="true"
     inkscape:snap-intersection-paths="false"
     inkscape:snap-bbox="true"
     inkscape:window-width="1366"
     inkscape:window-height="715"
     inkscape:window-x="-8"
     inkscape:window-y="-8"
     inkscape:window-maximized="1"
     inkscape:object-paths="true"
     inkscape:snap-smooth-nodes="true"
     inkscape:object-nodes="true"
     inkscape:snap-others="false"
     units="px" />
  <metadata
     id="metadata4537">
    <rdf:RDF>
      <cc:Work
         rdf:about="">
        <dc:format>image/svg+xml</dc:format>
        <dc:type
           rdf:resource="http://purl.org/dc/dcmitype/StillImage" />
        <dc:title></dc:title>
      </cc:Work>
    </rdf:RDF>
  </metadata>
  <g
     inkscape:label="Ebene 1"
     inkscape:groupmode="layer"
     id="layer1"
     transform="translate(0,-217.625)">
    <g
       id="g1646"
       transform="matrix(0.67717848,0,0,0.73622987,2.1573605,78.511412)">
      <path
         sodipodi:nodetypes="cccc"
         id="path14"
         d="m 143.92171,195.90478 c -26.51295,4.69157 -53.806015,20.33476 -70.30013,42.31104 m -3.037919,3.61166 C 58.630999,259.21182 42.8837,275.24235 5.5879819,292.10374"
         style="fill:none;stroke:#0065bd;stroke-width:3.07599998;stroke-linecap:butt;stroke-miterlimit:4;stroke-dasharray:none"
         inkscape:connector-curvature="0" />
      <path
         sodipodi:open="true"
         d="m 74.087607,240.98273 a 2.3396609,2.382304 0 0 1 -3.135378,1.07634 2.3396609,2.382304 0 0 1 -1.057083,-3.19252 2.3396609,2.382304 0 0 1 3.135374,-1.07635 2.3396609,2.382304 0 0 1 1.057095,3.19251"
         sodipodi:end="0.46021397"
         sodipodi:start="0.4602223"
         sodipodi:ry="2.382304"
         sodipodi:rx="2.3396609"
         sodipodi:cy="239.92464"
         sodipodi:cx="71.991379"
         sodipodi:type="arc"
         id="path8267"
         style="opacity:1;fill:none;fill-opacity:1;stroke:#0065bd;stroke-width:1.5;stroke-miterlimit:4;stroke-dasharray:none;stroke-dashoffset:0;stroke-opacity:1" />
    </g>
    <g
       id="g1711"
       transform="matrix(0.67717848,0,0,0.73622987,2.1573605,78.143413)">
      <path
         inkscape:connector-curvature="0"
         id="path10014"
         d="M 15.660082,219.4962 H 127.51158"
         style="fill:none;stroke:#adb5bd;stroke-width:1.01334453;stroke-miterlimit:4;stroke-dasharray:4.0533782, 2.02668911;stroke-dashoffset:0" />
      <path
         inkscape:connector-curvature="0"
         id="path10012"
         d="M 15.777262,240.56938 H 127.62875"
         style="fill:none;stroke:#adb5bd;stroke-width:1.01293123;stroke-miterlimit:4;stroke-dasharray:none;stroke-dashoffset:0" />
      <path
         inkscape:connector-curvature="0"
         id="path2"
         d="M 15.675996,264.43817 H 127.52749"
         style="fill:none;stroke:#adb5bd;stroke-width:1.01334453;stroke-miterlimit:4;stroke-dasharray:4.0533782, 2.02668911;stroke-dashoffset:0" />
      <path
         inkscape:label="path6"
         style="fill:#a2ad00;fill-opacity:1;stroke:#a2ad00;stroke-width:0.88087302;stroke-miterlimit:4;stroke-dasharray:0.88087298, 0.88087298;stroke-dashoffset:0;stroke-opacity:1;marker-start:url(#Arrow2Sstart);marker-end:url(#Arrow2Send)"
         sodipodi:nodetypes="cc"
         inkscape:connector-curvature="0"
         id="path6"
         d="M 72.162127,221.0912 71.79932,262.91934" />
    </g>
  </g>
  <g
     inkscape:groupmode="layer"
     id="layer2"
     inkscape:label="Ebene 2"
     transform="translate(0,-217.625)" />
</svg>
