<svg xmlns="http://www.w3.org/2000/svg" width="300" height="200" viewBox="0 0 150 100">
  <circle r="3" cx="25" cy="16" fill="#6c757d"/>
  <circle r="3" cx="15" cy="22" fill="#6c757d"/>
  <circle r="3" cx="20" cy="37" fill="#6c757d"/>
  <circle r="3" cx="32" cy="30" fill="#6c757d"/>
  <circle r="3" cx="134" cy="38" fill="#6c757d"/>
  <circle r="3" cx="123" cy="32" fill="#6c757d"/>
  <circle r="3" cx="123" cy="32" fill="#6c757d"/>
  <circle r="3" cx="115" cy="41" fill="#6c757d"/>
  <circle r="3" cx="125" cy="48" fill="#6c757d"/>
  <circle r="3" cx="134" cy="46" fill="#6c757d"/>
  <circle r="3" cx="66" cy="68" fill="#6c757d"/>
  <circle r="3" cx="58" cy="76" fill="#6c757d"/>
  <circle r="3" cx="72" cy="79" fill="#6c757d"/>
  <circle r="3" cx="78" cy="71" fill="#6c757d"/>
  <circle r="3" cx="36" cy="21" fill="#6c757d"/>
  <circle r="3" cx="34" cy="44" fill="#6c757d"/>
  <circle r="3" cx="12" cy="37" fill="#6c757d"/>
  <circle r="3" cx="24" cy="27" fill="#6c757d"/>
  <circle r="3" cx="55" cy="67" fill="#6c757d"/>
  <circle r="3" cx="65" cy="84" fill="#6c757d"/>
  <circle r="3" cx="114" cy="54" fill="#6c757d"/>
  <circle r="3" cx="113" cy="32" fill="#6c757d"/>
  <circle r="3" cx="104" cy="46" fill="#6c757d"/>
  <circle r="3" cx="132" cy="27" fill="#6c757d"/>
  <circle r="3" cx="130" cy="60" fill="#6c757d"/>
  <circle r="3" cx="122" cy="24" fill="#6c757d"/>
  <circle r="3" cx="102" cy="35" fill="#6c757d"/>
  <circle r="3" cx="42" cy="35" fill="#6c757d"/>
  <circle r="3" cx="62" cy="60" fill="#6c757d"/>
  <circle r="3" cx="76" cy="62" fill="#6c757d"/>
  <g stroke-linecap="round">
    <line x1="46" y1="6" x2="58" y2="18" stroke="#fff" stroke-width="4"/>
    <line x1="58" y1="6" x2="46" y2="18" stroke="#fff" stroke-width="4"/>
    <line x1="46" y1="6" x2="58" y2="18" stroke="#0065bd" stroke-width="2"/>
    <line x1="58" y1="6" x2="46" y2="18" stroke="#0065bd" stroke-width="2"/>
  </g>
  <g stroke-linecap="round">
    <line x1="44" y1="46" x2="56" y2="58" stroke="#fff" stroke-width="4"/>
    <line x1="56" y1="46" x2="44" y2="58" stroke="#fff" stroke-width="4"/>
    <line x1="44" y1="46" x2="56" y2="58" stroke="#a2ad00" stroke-width="2"/>
    <line x1="56" y1="46" x2="44" y2="58" stroke="#a2ad00" stroke-width="2"/>
  </g>
  <g stroke-linecap="round">
    <line x1="104" y1="67" x2="116" y2="79" stroke="#fff" stroke-width="4"/>
    <line x1="116" y1="67" x2="104" y2="79" stroke="#fff" stroke-width="4"/>
    <line x1="104" y1="67" x2="116" y2="79" stroke="#e37222" stroke-width="2"/>
    <line x1="116" y1="67" x2="104" y2="79" stroke="#e37222" stroke-width="2"/>
  </g>
</svg>
