<svg xmlns="http://www.w3.org/2000/svg" width="400" height="300" viewBox="0 0 400 300">
  <g fill="none" stroke="#adb5bd" stroke-width="2">
    <line x1="31" y1="17.1" x2="360.1" y2="17.1"/>
    <line x1="31" y1="49.2" x2="360.1" y2="49.2"/>
    <line x1="31" y1="81.3" x2="360.1" y2="81.3"/>
    <line x1="31" y1="113.4" x2="360.1" y2="113.4"/>
    <line x1="31" y1="145.5" x2="360.1" y2="145.5"/>
    <line x1="31" y1="177.6" x2="360.1" y2="177.6"/>
    <line x1="31" y1="258.3" x2="360.1" y2="258.3"/>
  </g>
  <g fill="none" stroke="#adb5bd" stroke-width="2" stroke-dasharray="2 2">
    <line x1="360.3" y1="17.1" x2="360.1" y2="258.1"/>
    <line x1="337.4" y1="49.4" x2="337.4" y2="258.1"/>
    <line x1="204.2" y1="81" x2="204.2" y2="258.1"/>
    <line x1="182.9" y1="113.2" x2="182.9" y2="258.1"/>
    <line x1="78.9" y1="145.3" x2="78.9" y2="258.1"/>
    <line x1="31" y1="177.1" x2="31" y2="258.1"/>
  </g>
  <g fill="none" stroke="#e37222" stroke-linecap="round" stroke-width="4">
    <path d="M40.5,285c-12.5-17.3-12-36.3,1.4-53.4"/>
    <path d="M88.3,285c-12.5-17.3-12-36.3,1.3-53.4"/>
    <path d="M192.1,285c-12.5-17.3-12-36.3,1.3-53.4"/>
    <path d="M213.3,285c-12.5-17.3-12-36.3,1.3-53.4"/>
    <path d="M346.4,285c-12.5-17.3-12-36.3,1.3-53.4"/>
    <path d="M369.1,285c-12.5-17.3-12-36.3,1.3-53.4"/>
  </g>
  <path d="M31.4,177.1c27.7-18.5,38.4-35.9,78.4-39.7s65.3-6.4,77.6-31.9c14-29,20.8-30.9,50.8-32.6,59.5-3.5,105.9-10.6,122.1-56.3" fill="none" stroke="#0065bd" stroke-linecap="round" stroke-width="6"/>
</svg>
