<svg xmlns="http://www.w3.org/2000/svg" width="320" height="320" viewBox="0 0 320 320">
  <g>
    <path d="M58.14,249.5a10.14,10.14,0,0,1-2.58,6.86,8.66,8.66,0,0,1-6.28,2.18,7.82,7.82,0,0,1-6.5-3,13.14,13.14,0,0,1-2.4-8.26v-6A12.62,12.62,0,0,1,42.8,233a8.14,8.14,0,0,1,6.66-3,8.26,8.26,0,0,1,6.18,2.24,10.5,10.5,0,0,1,2.5,6.84H55.86A8.92,8.92,0,0,0,54,233.7,6,6,0,0,0,49.46,232a6,6,0,0,0-5,2.4,11,11,0,0,0-1.8,6.8v6a11.78,11.78,0,0,0,1.74,6.8,5.66,5.66,0,0,0,4.9,2.46A6.24,6.24,0,0,0,54,254.9a9,9,0,0,0,1.78-5.4Z"/>
    <path d="M76.64,250.4H66l-2.42,7.76H61.22l9.06-27.76h2l9.06,27.76H79.1Zm-10-2H76l-4.7-14.92Z"/>
    <path d="M94.5,246.6H87.84v11.56H85.6V230.4h7.8a8,8,0,0,1,6,2.16,8.18,8.18,0,0,1,2.14,6,8.42,8.42,0,0,1-1.32,4.72A6.88,6.88,0,0,1,96.66,246l6,11.8v.24H100.2Zm-6.64-2h6a5.12,5.12,0,0,0,4-1.68,7.16,7.16,0,0,0-.1-8.9,5.84,5.84,0,0,0-4.38-1.6H87.84Z"/>
    <path d="M122.36,232.46h-8v25.7H112v-25.7h-8v-2h18.4Z"/>
    <path d="M144,247.3a12.76,12.76,0,0,1-2.42,8.32,9.28,9.28,0,0,1-13.12.42l-.42-.42a12.6,12.6,0,0,1-2.44-8.28v-6A12.74,12.74,0,0,1,128,233a9.22,9.22,0,0,1,13-.53q.28.25.53.53a12.92,12.92,0,0,1,2.44,8.38Zm-2.24-6a10.94,10.94,0,0,0-1.76-6.88,7,7,0,0,0-9.83-.45q-.23.21-.45.45a10.56,10.56,0,0,0-1.88,6.7v6.18a10.78,10.78,0,0,0,1.86,6.88,6.26,6.26,0,0,0,5.16,2.3,6.14,6.14,0,0,0,5.14-2.3,11.16,11.16,0,0,0,1.76-6.88Z"/>
    <path d="M167.3,254.94a8.88,8.88,0,0,1-3.6,2.7,12.2,12.2,0,0,1-4.74.9,8.66,8.66,0,0,1-7-2.86,12,12,0,0,1-2.6-8V241a12.36,12.36,0,0,1,2.38-8.16,8.34,8.34,0,0,1,6.86-2.82,8.58,8.58,0,0,1,6.16,2.12,8.9,8.9,0,0,1,2.5,6.1h-2.24a7.32,7.32,0,0,0-2-4.68,6.3,6.3,0,0,0-4.4-1.54,6.14,6.14,0,0,0-5.2,2.26,10.76,10.76,0,0,0-1.72,6.62v6.4a10.62,10.62,0,0,0,2,6.74,6.44,6.44,0,0,0,5.34,2.4,8.36,8.36,0,0,0,6-2.3V247h-6.26v-2h8.48Z"/>
    <path d="M182.56,246.6H176v11.56h-2.32V230.4h7.8a8,8,0,0,1,6,2.16,8.18,8.18,0,0,1,2.14,6,8.42,8.42,0,0,1-1.32,4.72,6.88,6.88,0,0,1-3.56,2.74l6,11.8v.24h-2.46Zm-6.56-2h6a5.12,5.12,0,0,0,4-1.68,7,7,0,0,0-.18-8.88,5.84,5.84,0,0,0-4.38-1.6H176Z"/>
    <path d="M208.64,250.4H198l-2.42,7.76h-2.34l9.06-27.76h2l9.06,27.76h-2.24Zm-10-2H208l-4.68-14.92Z"/>
    <path d="M219.88,246.88v11.28h-2.22V230.4H226a8,8,0,0,1,6,2.22,9.52,9.52,0,0,1,.06,12,8.14,8.14,0,0,1-6,2.12Zm0-2h6a5.76,5.76,0,0,0,4.34-1.6,6.24,6.24,0,0,0,1.54-4.5,6.5,6.5,0,0,0-1.56-4.6,5.58,5.58,0,0,0-4.2-1.72h-6Z"/>
    <path d="M257.06,258.16h-2.24V244.88H241.46v13.28h-2.22V230.4h2.22v12.46h13.36V230.4h2.24Z"/>
    <path d="M270.34,245.5l7.1-15.1H280l-8.56,17.32v10.44h-2.22V247.72l-8.54-17.32h2.62Z"/>
    <path d="M45.74,279.64v9.76H40V261.64h9.7a8.73,8.73,0,0,1,9.26,9.2,8.48,8.48,0,0,1-2.48,6.44,9.56,9.56,0,0,1-6.88,2.36Zm0-4.68h4a3.16,3.16,0,0,0,2.54-1,4.56,4.56,0,0,0,.9-3.06,5.4,5.4,0,0,0-.92-3.3,3,3,0,0,0-2.46-1.24h-4Z"/>
    <path d="M69.7,284.74h10v4.66H64V261.64h5.74Z"/>
    <path d="M98.26,283.72H90.42L88.9,289.4h-6l8.88-27.76H97l9,27.76H99.78ZM91.68,279H97l-2.66-9.9Z"/>
    <path d="M115.42,274l4.28-12.46H126l-7.62,17.7v10H112.5v-10l-7.64-17.7h6.26Z"/>
    <path d="M148.52,286.24a10.5,10.5,0,0,1-4,2.64,15.22,15.22,0,0,1-5.28.88,9.82,9.82,0,0,1-7.62-3,12.62,12.62,0,0,1-2.8-8.62v-5a13.5,13.5,0,0,1,2.56-8.84,9.18,9.18,0,0,1,7.5-3.1,9.8,9.8,0,0,1,7,2.24,10.42,10.42,0,0,1,2.72,7h-5.64a6.24,6.24,0,0,0-1.14-3.62,4.4,4.4,0,0,0-6.19.68v0a10.36,10.36,0,0,0-1.1,5.28v5a10.12,10.12,0,0,0,1.16,5.52,4.26,4.26,0,0,0,3.82,1.72,5.1,5.1,0,0,0,2.76-.66l.5-.34V279h-4V274.8h9.78Z"/>
    <path d="M162.4,279.26h-2.84V289.4h-5.74V261.64H163a9.46,9.46,0,0,1,6.68,2.18,9.35,9.35,0,0,1-1.78,13.94l5,11.36v.26h-6.18Zm-2.86-4.68h3.26a3.06,3.06,0,0,0,2.58-1.12,4.76,4.76,0,0,0,.86-3q0-4.18-3.34-4.18h-3.34Z"/>
    <g>
      <path d="M192,267a9,9,0,1,1-9,9h0a9,9,0,0,1,9-9m0-5a14,14,0,1,0,14,14A14,14,0,0,0,192,262Z"/>
      <path d="M189.84,273.86,186,282l8.16-3.84L198,270ZM192,277.1a1.08,1.08,0,1,1,1.08-1.08h0A1.08,1.08,0,0,1,192,277.1Z" fill="#e37222"/>
    </g>
    <path d="M229.74,261.64v19.22a8.86,8.86,0,0,1-2.44,6.62,11.58,11.58,0,0,1-13.88,0,8.92,8.92,0,0,1-2.42-6.72V261.64h5.78v19.1a5.62,5.62,0,0,0,.78,3.28,3.4,3.4,0,0,0,2.84,1,3.36,3.36,0,0,0,2.82-1,5.6,5.6,0,0,0,.78-3.2v-19.2Z"/>
    <path d="M255.18,289.4h-5.74L241,271.2v18.2H235.3V261.64H241l8.42,18.22V261.64h5.72Z"/>
    <path d="M261,289.4V261.64h7.52a10.48,10.48,0,0,1,8,3.08,12,12,0,0,1,3,8.46v4.5a12,12,0,0,1-3,8.58,10.7,10.7,0,0,1-8.16,3.12Zm5.74-23.08v18.44h1.72a4.88,4.88,0,0,0,4-1.48,8.62,8.62,0,0,0,1.24-5.1v-4.84a9.66,9.66,0,0,0-1.12-5.42,4.54,4.54,0,0,0-3.8-1.62Z"/>
  </g>
  <g>
    <polygon points="206.28 60.04 263.73 34.35 263.73 168.61 206.28 194.3 206.28 60.04" fill="#e37222"/>
    <polygon points="118.75 170.73 118.75 37 201.25 60.72 201.25 194.45 118.75 170.73" fill="#0065bd"/>
    <polygon points="56.27 62.91 113.72 37.15 113.72 171.33 56.27 197.09 56.27 62.91" fill="#a2ad00"/>
    <path d="M260.13,27.56a12.37,12.37,0,0,0-5.18,1.13L202.82,52,119.65,28.08a12.14,12.14,0,0,0-8.48.6L55,53.85a12.62,12.62,0,0,0-7.5,11.48V191.28A12.44,12.44,0,0,0,65,202.76l52.13-23.27,83.17,23.87a12.14,12.14,0,0,0,8.47-.6L265,177.6a12.62,12.62,0,0,0,7.5-11.48V40.17a12.5,12.5,0,0,0-12.37-12.62ZM110,168.61,60,191.28V65.33L110,42.67Zm87.53,20.85-75-21.61V42l75,21.61ZM260,166.12,210,188.78V62.84L260,40.17Z"/>
  </g>
</svg>
