<?xml version="1.0" encoding="UTF-8" standalone="no"?>
<svg
   xmlns:dc="http://purl.org/dc/elements/1.1/"
   xmlns:cc="http://creativecommons.org/ns#"
   xmlns:rdf="http://www.w3.org/1999/02/22-rdf-syntax-ns#"
   xmlns:svg="http://www.w3.org/2000/svg"
   xmlns="http://www.w3.org/2000/svg"
   xmlns:sodipodi="http://sodipodi.sourceforge.net/DTD/sodipodi-0.dtd"
   xmlns:inkscape="http://www.inkscape.org/namespaces/inkscape"
   width="360"
   height="380"
   viewBox="0 0 68.792 100.542"
   version="1.1"
   id="svg36"
   sodipodi:docname="test.svg"
   inkscape:version="1.0.1 (3bc2e813f5, 2020-09-07)">
  <metadata
     id="metadata40">
    <rdf:RDF>
      <cc:Work
         rdf:about="">
        <dc:format>image/svg+xml</dc:format>
        <dc:type
           rdf:resource="http://purl.org/dc/dcmitype/StillImage" />
      </cc:Work>
    </rdf:RDF>
  </metadata>
  <sodipodi:namedview
     pagecolor="#ffffff"
     bordercolor="#666666"
     borderopacity="1"
     objecttolerance="10"
     gridtolerance="10"
     guidetolerance="10"
     inkscape:pageopacity="0"
     inkscape:pageshadow="2"
     inkscape:window-width="3440"
     inkscape:window-height="1377"
     id="namedview38"
     showgrid="false"
     inkscape:zoom="2.6526316"
     inkscape:cx="111.33929"
     inkscape:cy="190"
     inkscape:window-x="-8"
     inkscape:window-y="-8"
     inkscape:window-maximized="1"
     inkscape:current-layer="svg36"
     inkscape:document-rotation="0" />
  <defs
     id="defs8">
    <marker
       orient="auto"
       refY="0"
       refX="0"
       id="a"
       overflow="visible">
      <path
         d="M1.926 1.21L-1.352.005l3.278-1.206a2.05 2.05 0 000 2.411z"
         fill="#a2ad00"
         fill-rule="evenodd"
         stroke="#a2ad00"
         stroke-width=".1875"
         stroke-linejoin="round"
         id="path2" />
    </marker>
    <marker
       orient="auto"
       refY="0"
       refX="0"
       id="b"
       overflow="visible">
      <path
         d="M-1.926-1.21L1.352-.005l-3.278 1.206a2.05 2.05 0 000-2.411z"
         fill="#a2ad00"
         fill-rule="evenodd"
         stroke="#a2ad00"
         stroke-width=".1875"
         stroke-linejoin="round"
         id="path5" />
    </marker>
  </defs>
  <g
     id="g881"
     transform="rotate(51,33.412549,49.536909)"
     inkscape:label="Fehler">
    <path
       d="M 15.66,219.496 H 127.512"
       fill="none"
       stroke="#adb5bd"
       stroke-width="1.013"
       stroke-dasharray="4.053, 2.027"
       transform="matrix(0.00118,-0.70542,0.7768,0.00139,-154.565,99.596)"
       id="path10" />
    <path
       d="M 15.676,264.438 H 127.527"
       fill="none"
       stroke="#adb5bd"
       stroke-width="1.013"
       stroke-dasharray="4.053, 2.027"
       transform="matrix(0.00118,-0.70542,0.7768,0.00139,-154.565,99.596)"
       id="path14" />
    <path
       d="m 72.504,221.09 0.395,41.828"
       fill="#a2ad00"
       stroke="#a2ad00"
       stroke-width="0.881"
       stroke-dasharray="0.881, 0.881"
       marker-start="url(#a)"
       marker-end="url(#b)"
       transform="matrix(0.00118,-0.70542,0.7768,0.00139,-154.565,99.596)"
       id="path16" />
    <path
       d="M 33.363286,88.543829 33.495271,9.6411914"
       fill="none"
       stroke="#adb5bd"
       stroke-width="0.749875"
       id="path12" />
  </g>
  <g
     fill="none"
     stroke="#0065bd"
     id="g22"
     inkscape:label="Kurve">
    <path
       d="m 143.578,200.081 c -26.513,4.692 -53.806,20.335 -70.3,42.311 m -3.038,3.612 C 58.31,265.26 44.145,273.924 6.812,287.668"
       stroke-width="3.076"
       transform="matrix(0.0087,0.69706,0.7226,-0.0084,-142.785,0.693)"
       id="path18"
       inkscape:label="Pfad" />
    <path
       d="m 73.744,245.16 a 2.34,2.382 0 0 1 -3.135,1.076 2.34,2.382 0 0 1 -1.057,-3.193 2.34,2.382 0 0 1 3.135,-1.076 2.34,2.382 0 0 1 1.057,3.192"
       stroke-width="1.5"
       transform="matrix(0.0087,0.69706,0.7226,-0.0084,-142.785,0.693)"
       id="path20"
       inkscape:label="Kreis"
       style="fill:#ffffff;fill-opacity:1" />
  </g>
  <text
     style="line-height:1.25;font-weight:400;font-size:3.32901px;font-family:sans-serif;letter-spacing:0;word-spacing:0;stroke-width:0.188001;"
     x="40.209808"
     y="55.297295"
     transform="scale(1.0181568,0.98216695)"
     font-weight="400"
     font-size="3.32901px"
     font-family="sans-serif"
     letter-spacing="0"
     word-spacing="0"
     stroke-width="0.188001"
     id="text28"><tspan
       x="40.209808"
       y="55.297295"
       id="tspan26"
       style="font-style:italic;font-variant:normal;font-weight:normal;font-stretch:normal;font-size:3.52779px;font-family:'Linux Libertine G';-inkscape-font-specification:'Linux Libertine G, Italic';font-variant-ligatures:normal;font-variant-caps:normal;font-variant-numeric:normal;font-variant-east-asian:normal;stroke-width:0.188001">+ mL</tspan></text>
  <text
     style="line-height:1.25;font-weight:400;font-size:3.00501px;font-family:sans-serif;letter-spacing:0;word-spacing:0;stroke-width:0.188001;"
     x="29.234615"
     y="40.241142"
     transform="scale(1.0181568,0.98216695)"
     font-weight="400"
     font-size="3.00501px"
     font-family="sans-serif"
     letter-spacing="0"
     word-spacing="0"
     stroke-width="0.188001"
     id="text34"><tspan
       x="29.234615"
       y="40.241142"
       font-size="3.32901px"
       id="tspan32"
       style="font-style:italic;font-variant:normal;font-weight:normal;font-stretch:normal;font-size:3.52779px;font-family:'Linux Libertine G';-inkscape-font-specification:'Linux Libertine G, Italic';font-variant-ligatures:normal;font-variant-caps:normal;font-variant-numeric:normal;font-variant-east-asian:normal;stroke-width:0.188001">- mL</tspan></text>
</svg>
